<svg width="24" height="24" viewBox="0 0 24 24" fill="none" xmlns="http://www.w3.org/2000/svg">
<path d="M21.2636 1.99988H2.73637C2.32969 1.99988 2 2.32956 2 2.73625V21.2635C2 21.6702 2.32969 21.9999 2.73637 21.9999H21.2636C21.6703 21.9999 22 21.6702 22 21.2635V2.73625C22 2.32956 21.6703 1.99988 21.2636 1.99988Z" stroke="#595959" stroke-width="1.5" stroke-linecap="round" stroke-linejoin="round"/>
<path d="M6 16.6665L9.07733 12.5634V12.5634C9.51897 11.9742 10.3547 11.8545 10.9439 12.2961C10.9945 12.3341 11.0424 12.3756 11.0871 12.4203L12 13.3332L14.9333 9.42208V9.42208C15.3752 8.83298 16.2109 8.71359 16.8 9.15542C16.9011 9.23122 16.9909 9.32101 17.0667 9.42208L19.44 12.5865" stroke="#8C8C8C" stroke-width="1.5" stroke-linecap="round" stroke-linejoin="round"/>
<path d="M6.99998 8.66652C7.92045 8.66652 8.66665 7.92033 8.66665 6.99986C8.66665 6.07938 7.92045 5.33319 6.99998 5.33319C6.07951 5.33319 5.33331 6.07938 5.33331 6.99986C5.33331 7.92033 6.07951 8.66652 6.99998 8.66652Z" stroke="#8C8C8C" stroke-width="1.5" stroke-linecap="round" stroke-linejoin="round"/>
<path d="M2 16.6666H22" stroke="#595959" stroke-width="1.5" stroke-linecap="round" stroke-linejoin="round"/>
</svg>
